{
  "project_info": {
    "project_number": "314208248396",
    "firebase_url": "https://mycity-mnbs.firebaseio.com",
    "project_id": "mycity-mnbs",
    "storage_bucket": "mycity-mnbs.appspot.com"
  },
  "client": [
    {
      "client_info": {
        "mobilesdk_app_id": "1:314208248396:android:37e6f476c9c2c667",
        "android_client_info": {
          "package_name": "ua.com.mnbs.mylviv"
        }
      },
      "oauth_client": [
        {
          "client_id": "314208248396-4ke43stpml32hps2kjkogosjhgef9vsv.apps.googleusercontent.com",
          "client_type": 1,
          "android_info": {
            "package_name": "ua.com.mnbs.mylviv",
            "certificate_hash": "2c4393ea143ec8cb71fcd8ba2ddca6a770c4f3b7"
          }
        },
        {
          "client_id": "314208248396-u7asf67miftbkcf7ooeeqbai2du8r2j8.apps.googleusercontent.com",
          "client_type": 3
        }
      ],
      "api_key": [
        {
          "current_key": "AIzaSyBicJWSl27PE24n82zwFld0wQ9FDyquSKM"
        }
      ],
      "services": {
        "analytics_service": {
          "status": 1
        },
        "appinvite_service": {
          "status": 2,
          "other_platform_oauth_client": [
            {
              "client_id": "314208248396-u7asf67miftbkcf7ooeeqbai2du8r2j8.apps.googleusercontent.com",
              "client_type": 3
            }
          ]
        },
        "ads_service": {
          "status": 2
        }
      }
    }
  ],
  "configuration_version": "1"
}